Role Name,Email
Super Admin,rendrsuper@yahoo.com
Support,rendrsupp.enosis@yahoo.com
Production,rendrprouser@yahoo.com
Facility Admin,rendr_facilityadm@yahoo.com
Review Doctor,rendrreviewdoctor@yahoo.com
Lead Tech,rendrleadtech@yahoo.com
Field Tech,rendrfieldtech@yahoo.com
Office Personnel,rendrofficepersonnel@yahoo.com
