Endpoint,URL,Super Admin,Support,Production,Facility Admin,Review Doctor,Lead Tech,Field Tech,Office Personnel
Authorized,,,,,,,,,
ResetUserPassword,,,,,,,,,
ForgotPassword,,,,,,,,,
AccountRecovery,,,,,,,,,
UserInfo,,,,,,,,,
IsAuthorizedForDeviceUse,,,,,,,,,
Logout,,,,,,,,,
GetManageInfo,,,,,,,,,
